{
    "data" : [
        {
            "id" : "1",
            "type" : "Items",
            "attributes" : {
                "name" : "ItemStub1",
                "preview" : "Test preview 1",
                "color" : "Red"
            }
        },
        {
            "id" : "2",
            "type" : "Items",
            "attributes" : {
                "name" : "ItemStub2",
                "preview" : "Test preview 2",
                "color" : "Green"
            }
        }
    ]
}

